…
## Query Advertisers

``` r
tiktokcomm_query_advertisers(
  search_term = "awesome",
  max_count = 25,
  verbose = F
)
#> # A tibble: 25 × 3
#>    business_id business_name     country_code
#>          <dbl> <chr>             <chr>       
#>  1     7.26e18 Awesome Cosmetics PL          
#>  2     7.41e18 AWESOME           TH          
#>  3     7.41e18 SJAJSF            US          
#>  4     7.17e18 Adidog            IE          
#>  5     7.41e18 OYIB              ID          
#>  6     7.41e18 OYIB              ID          
#>  7     7.41e18 OYIB              ID          
#>  8     7.41e18 OYIB              ID          
#>  9     7.41e18 OYIB              ID          
#> 10     7.41e18 OYIB              ID          
#> # ℹ 15 more rows
```
…
This function retrieves a report on ad publishing from the TikTok
Commercial API.

## Query Commercial Content

``` r
tiktokcomm_query_commercial_content(
  start_date = "2023-01-02",
  end_date = "2023-01-09",
  creator_country_code = "FR",
  max_count = 50,
  max_pages = 5,
  verbose = F
)
#> # A tibble: 250 × 7
#>    id         create_timestamp    create_date label brand_names creator_username
#>    <chr>      <dttm>              <date>      <chr> <chr>       <chr>           
#>  1 v09044g40… 2023-01-07 18:02:46 2023-01-07  Paid… ""          kodhproducer    
#>  2 v09044g40… 2023-01-03 08:40:09 2023-01-03  Paid… ""          celia.dahan     
#>  3 v09044g40… 2023-01-02 15:06:04 2023-01-02  Paid… ""          beckr4real      
#>  4 v09044g40… 2023-01-02 10:03:25 2023-01-02  Paid… ""          marketdamp      
#>  5 v09044g40… 2023-01-02 17:11:17 2023-01-02  Paid… ""          sarabel__       
#>  6 v09044g40… 2023-01-03 18:21:11 2023-01-03  Paid… ""          jayf2.0         
#>  7 v09044g40… 2023-01-03 14:58:46 2023-01-03  Paid… ""          louisergtt      
#>  8 v09044g40… 2023-01-09 18:56:06 2023-01-09  Paid… ""          thibaultodiot   
#>  9 v09044g40… 2023-01-09 16:12:24 2023-01-09  Paid… ""          vvvanel         
#> 10 v09044g40… 2023-01-09 18:06:37 2023-01-09  Paid… ""          micke_geek      
#> # ℹ 240 more rows
#> # ℹ 1 more variable: videos_1 <list>
```
…
